%YAML 1.1
%TAG !u! tag:unity3d.com,2011:
--- !u!1 &6110486380525595721
GameObject:
  m_ObjectHideFlags: 0
  m_CorrespondingSourceObject: {fileID: 0}
  m_PrefabInstance: {fileID: 0}
  m_PrefabAsset: {fileID: 0}
  serializedVersion: 6
  m_Component:
  - component: {fileID: 1498866004595908403}
  - component: {fileID: 3157183676729034116}
  m_Layer: 31
  m_Name: TileSet1
  m_TagString: Untagged
  m_Icon: {fileID: 0}
  m_NavMeshLayer: 0
  m_StaticEditorFlags: 0
  m_IsActive: 1
--- !u!4 &1498866004595908403
Transform:
  m_ObjectHideFlags: 0
  m_CorrespondingSourceObject: {fileID: 0}
  m_PrefabInstance: {fileID: 0}
  m_PrefabAsset: {fileID: 0}
  m_GameObject: {fileID: 6110486380525595721}
  m_LocalRotation: {x: 0, y: 0, z: 0, w: 1}
  m_LocalPosition: {x: 0, y: 0, z: 0}
  m_LocalScale: {x: 1, y: 1, z: 1}
  m_Children:
  - {fileID: 1476194679016582291}
  m_Father: {fileID: 0}
  m_RootOrder: 0
  m_LocalEulerAnglesHint: {x: 0, y: 0, z: 0}
--- !u!156049354 &3157183676729034116
Grid:
  m_ObjectHideFlags: 0
  m_CorrespondingSourceObject: {fileID: 0}
  m_PrefabInstance: {fileID: 0}
  m_PrefabAsset: {fileID: 0}
  m_GameObject: {fileID: 6110486380525595721}
  m_Enabled: 1
  m_CellSize: {x: 1, y: 1, z: 0}
  m_CellGap: {x: 0, y: 0, z: 0}
  m_CellLayout: 0
  m_CellSwizzle: 0
--- !u!1 &7709183437215448982
GameObject:
  m_ObjectHideFlags: 0
  m_CorrespondingSourceObject: {fileID: 0}
  m_PrefabInstance: {fileID: 0}
  m_PrefabAsset: {fileID: 0}
  serializedVersion: 6
  m_Component:
  - component: {fileID: 1476194679016582291}
  - component: {fileID: 5243138022750333249}
  - component: {fileID: 7859529739172425698}
  m_Layer: 0
  m_Name: Layer1
  m_TagString: Untagged
  m_Icon: {fileID: 0}
  m_NavMeshLayer: 0
  m_StaticEditorFlags: 0
  m_IsActive: 1
--- !u!4 &1476194679016582291
Transform:
  m_ObjectHideFlags: 0
  m_CorrespondingSourceObject: {fileID: 0}
  m_PrefabInstance: {fileID: 0}
  m_PrefabAsset: {fileID: 0}
  m_GameObject: {fileID: 7709183437215448982}
  m_LocalRotation: {x: -0, y: -0, z: -0, w: 1}
  m_LocalPosition: {x: 0, y: 0, z: 0}
  m_LocalScale: {x: 1, y: 1, z: 1}
  m_Children: []
  m_Father: {fileID: 1498866004595908403}
  m_RootOrder: 0
  m_LocalEulerAnglesHint: {x: 0, y: 0, z: 0}
--- !u!1839735485 &5243138022750333249
Tilemap:
  m_ObjectHideFlags: 0
  m_CorrespondingSourceObject: {fileID: 0}
  m_PrefabInstance: {fileID: 0}
  m_PrefabAsset: {fileID: 0}
  m_GameObject: {fileID: 7709183437215448982}
  m_Enabled: 1
  m_Tiles:
  - first: {x: -2, y: -1, z: 0}
    second:
      serializedVersion: 2
      m_TileIndex: 56
      m_TileSpriteIndex: 24
      m_TileMatrixIndex: 0
      m_TileColorIndex: 0
      m_TileObjectToInstantiateIndex: 65535
      dummyAlignment: 0
      m_AllTileFlags: 1073741825
  - first: {x: -1, y: -1, z: 0}
    second:
      serializedVersion: 2
      m_TileIndex: 12
      m_TileSpriteIndex: 25
      m_TileMatrixIndex: 0
      m_TileColorIndex: 0
      m_TileObjectToInstantiateIndex: 65535
      dummyAlignment: 0
      m_AllTileFlags: 1073741825
  - first: {x: 0, y: -1, z: 0}
    second:
      serializedVersion: 2
      m_TileIndex: 13
      m_TileSpriteIndex: 26
      m_TileMatrixIndex: 0
      m_TileColorIndex: 0
      m_TileObjectToInstantiateIndex: 65535
      dummyAlignment: 0
      m_AllTileFlags: 1073741825
  - first: {x: 1, y: -1, z: 0}
    second:
      serializedVersion: 2
      m_TileIndex: 14
      m_TileSpriteIndex: 27
      m_TileMatrixIndex: 0
      m_TileColorIndex: 0
      m_TileObjectToInstantiateIndex: 65535
      dummyAlignment: 0
      m_AllTileFlags: 1073741825
  - first: {x: 2, y: -1, z: 0}
    second:
      serializedVersion: 2
      m_TileIndex: 15
      m_TileSpriteIndex: 28
      m_TileMatrixIndex: 0
      m_TileColorIndex: 0
      m_TileObjectToInstantiateIndex: 65535
      dummyAlignment: 0
      m_AllTileFlags: 1073741825
  - first: {x: 3, y: -1, z: 0}
    second:
      serializedVersion: 2
      m_TileIndex: 24
      m_TileSpriteIndex: 29
      m_TileMatrixIndex: 0
      m_TileColorIndex: 0
      m_TileObjectToInstantiateIndex: 65535
      dummyAlignment: 0
      m_AllTileFlags: 1073741825
  - first: {x: 4, y: -1, z: 0}
    second:
      serializedVersion: 2
      m_TileIndex: 25
      m_TileSpriteIndex: 30
      m_TileMatrixIndex: 0
      m_TileColorIndex: 0
      m_TileObjectToInstantiateIndex: 65535
      dummyAlignment: 0
      m_AllTileFlags: 1073741825
  - first: {x: 5, y: -1, z: 0}
    second:
      serializedVersion: 2
      m_TileIndex: 57
      m_TileSpriteIndex: 31
      m_TileMatrixIndex: 0
      m_TileColorIndex: 0
      m_TileObjectToInstantiateIndex: 65535
      dummyAlignment: 0
      m_AllTileFlags: 1073741825
  - first: {x: -2, y: 0, z: 0}
    second:
      serializedVersion: 2
      m_TileIndex: 54
      m_TileSpriteIndex: 16
      m_TileMatrixIndex: 0
      m_TileColorIndex: 0
      m_TileObjectToInstantiateIndex: 65535
      dummyAlignment: 0
      m_AllTileFlags: 1073741825
  - first: {x: -1, y: 0, z: 0}
    second:
      serializedVersion: 2
      m_TileIndex: 8
      m_TileSpriteIndex: 17
      m_TileMatrixIndex: 0
      m_TileColorIndex: 0
      m_TileObjectToInstantiateIndex: 65535
      dummyAlignment: 0
      m_AllTileFlags: 1073741825
  - first: {x: 0, y: 0, z: 0}
    second:
      serializedVersion: 2
      m_TileIndex: 9
      m_TileSpriteIndex: 18
      m_TileMatrixIndex: 0
      m_TileColorIndex: 0
      m_TileObjectToInstantiateIndex: 65535
      dummyAlignment: 0
      m_AllTileFlags: 1073741825
  - first: {x: 1, y: 0, z: 0}
    second:
      serializedVersion: 2
      m_TileIndex: 10
      m_TileSpriteIndex: 19
      m_TileMatrixIndex: 0
      m_TileColorIndex: 0
      m_TileObjectToInstantiateIndex: 65535
      dummyAlignment: 0
      m_AllTileFlags: 1073741825
  - first: {x: 2, y: 0, z: 0}
    second:
      serializedVersion: 2
      m_TileIndex: 11
      m_TileSpriteIndex: 20
      m_TileMatrixIndex: 0
      m_TileColorIndex: 0
      m_TileObjectToInstantiateIndex: 65535
      dummyAlignment: 0
      m_AllTileFlags: 1073741825
  - first: {x: 3, y: 0, z: 0}
    second:
      serializedVersion: 2
      m_TileIndex: 22
      m_TileSpriteIndex: 21
      m_TileMatrixIndex: 0
      m_TileColorIndex: 0
      m_TileObjectToInstantiateIndex: 65535
      dummyAlignment: 0
      m_AllTileFlags: 1073741825
  - first: {x: 4, y: 0, z: 0}
    second:
      serializedVersion: 2
      m_TileIndex: 23
      m_TileSpriteIndex: 22
      m_TileMatrixIndex: 0
      m_TileColorIndex: 0
      m_TileObjectToInstantiateIndex: 65535
      dummyAlignment: 0
      m_AllTileFlags: 1073741825
  - first: {x: 5, y: 0, z: 0}
    second:
      serializedVersion: 2
      m_TileIndex: 55
      m_TileSpriteIndex: 23
      m_TileMatrixIndex: 0
      m_TileColorIndex: 0
      m_TileObjectToInstantiateIndex: 65535
      dummyAlignment: 0
      m_AllTileFlags: 1073741825
  - first: {x: -2, y: 1, z: 0}
    second:
      serializedVersion: 2
      m_TileIndex: 52
      m_TileSpriteIndex: 8
      m_TileMatrixIndex: 0
      m_TileColorIndex: 0
      m_TileObjectToInstantiateIndex: 65535
      dummyAlignment: 0
      m_AllTileFlags: 1073741825
  - first: {x: -1, y: 1, z: 0}
    second:
      serializedVersion: 2
      m_TileIndex: 0
      m_TileSpriteIndex: 9
      m_TileMatrixIndex: 0
      m_TileColorIndex: 0
      m_TileObjectToInstantiateIndex: 65535
      dummyAlignment: 0
      m_AllTileFlags: 1073741825
  - first: {x: 0, y: 1, z: 0}
    second:
      serializedVersion: 2
      m_TileIndex: 5
      m_TileSpriteIndex: 10
      m_TileMatrixIndex: 0
      m_TileColorIndex: 0
      m_TileObjectToInstantiateIndex: 65535
      dummyAlignment: 0
      m_AllTileFlags: 1073741825
  - first: {x: 1, y: 1, z: 0}
    second:
      serializedVersion: 2
      m_TileIndex: 6
      m_TileSpriteIndex: 11
      m_TileMatrixIndex: 0
      m_TileColorIndex: 0
      m_TileObjectToInstantiateIndex: 65535
      dummyAlignment: 0
      m_AllTileFlags: 1073741825
  - first: {x: 2, y: 1, z: 0}
    second:
      serializedVersion: 2
      m_TileIndex: 7
      m_TileSpriteIndex: 12
      m_TileMatrixIndex: 0
      m_TileColorIndex: 0
      m_TileObjectToInstantiateIndex: 65535
      dummyAlignment: 0
      m_AllTileFlags: 1073741825
  - first: {x: 3, y: 1, z: 0}
    second:
      serializedVersion: 2
      m_TileIndex: 20
      m_TileSpriteIndex: 13
      m_TileMatrixIndex: 0
      m_TileColorIndex: 0
      m_TileObjectToInstantiateIndex: 65535
      dummyAlignment: 0
      m_AllTileFlags: 1073741825
  - first: {x: 4, y: 1, z: 0}
    second:
      serializedVersion: 2
      m_TileIndex: 21
      m_TileSpriteIndex: 14
      m_TileMatrixIndex: 0
      m_TileColorIndex: 0
      m_TileObjectToInstantiateIndex: 65535
      dummyAlignment: 0
      m_AllTileFlags: 1073741825
  - first: {x: 5, y: 1, z: 0}
    second:
      serializedVersion: 2
      m_TileIndex: 53
      m_TileSpriteIndex: 15
      m_TileMatrixIndex: 0
      m_TileColorIndex: 0
      m_TileObjectToInstantiateIndex: 65535
      dummyAlignment: 0
      m_AllTileFlags: 1073741825
  - first: {x: -2, y: 2, z: 0}
    second:
      serializedVersion: 2
      m_TileIndex: 50
      m_TileSpriteIndex: 0
      m_TileMatrixIndex: 0
      m_TileColorIndex: 0
      m_TileObjectToInstantiateIndex: 65535
      dummyAlignment: 0
      m_AllTileFlags: 1073741825
  - first: {x: -1, y: 2, z: 0}
    second:
      serializedVersion: 2
      m_TileIndex: 1
      m_TileSpriteIndex: 1
      m_TileMatrixIndex: 0
      m_TileColorIndex: 0
      m_TileObjectToInstantiateIndex: 65535
      dummyAlignment: 0
      m_AllTileFlags: 1073741825
  - first: {x: 0, y: 2, z: 0}
    second:
      serializedVersion: 2
      m_TileIndex: 2
      m_TileSpriteIndex: 2
      m_TileMatrixIndex: 0
      m_TileColorIndex: 0
      m_TileObjectToInstantiateIndex: 65535
      dummyAlignment: 0
      m_AllTileFlags: 1073741825
  - first: {x: 1, y: 2, z: 0}
    second:
      serializedVersion: 2
      m_TileIndex: 3
      m_TileSpriteIndex: 3
      m_TileMatrixIndex: 0
      m_TileColorIndex: 0
      m_TileObjectToInstantiateIndex: 65535
      dummyAlignment: 0
      m_AllTileFlags: 1073741825
  - first: {x: 2, y: 2, z: 0}
    second:
      serializedVersion: 2
      m_TileIndex: 4
      m_TileSpriteIndex: 4
      m_TileMatrixIndex: 0
      m_TileColorIndex: 0
      m_TileObjectToInstantiateIndex: 65535
      dummyAlignment: 0
      m_AllTileFlags: 1073741825
  - first: {x: 3, y: 2, z: 0}
    second:
      serializedVersion: 2
      m_TileIndex: 18
      m_TileSpriteIndex: 5
      m_TileMatrixIndex: 0
      m_TileColorIndex: 0
      m_TileObjectToInstantiateIndex: 65535
      dummyAlignment: 0
      m_AllTileFlags: 1073741825
  - first: {x: 4, y: 2, z: 0}
    second:
      serializedVersion: 2
      m_TileIndex: 19
      m_TileSpriteIndex: 6
      m_TileMatrixIndex: 0
      m_TileColorIndex: 0
      m_TileObjectToInstantiateIndex: 65535
      dummyAlignment: 0
      m_AllTileFlags: 1073741825
  - first: {x: 5, y: 2, z: 0}
    second:
      serializedVersion: 2
      m_TileIndex: 51
      m_TileSpriteIndex: 7
      m_TileMatrixIndex: 0
      m_TileColorIndex: 0
      m_TileObjectToInstantiateIndex: 65535
      dummyAlignment: 0
      m_AllTileFlags: 1073741825
  m_AnimatedTiles: {}
  m_TileAssetArray:
  - m_RefCount: 1
    m_Data: {fileID: 11400000, guid: b1e98f469a4036c4180780df97229e11, type: 2}
  - m_RefCount: 1
    m_Data: {fileID: 11400000, guid: e96c9b403d2af554c9285d25fe8a3b1f, type: 2}
  - m_RefCount: 1
    m_Data: {fileID: 11400000, guid: aa7292c0229cf0647a08db90a51b0dbc, type: 2}
  - m_RefCount: 1
    m_Data: {fileID: 11400000, guid: 0447e72641a481b4882b98b35fdf4974, type: 2}
  - m_RefCount: 1
    m_Data: {fileID: 11400000, guid: c8920424567cf0f428c7b0a085387c36, type: 2}
  - m_RefCount: 1
    m_Data: {fileID: 11400000, guid: 6fc630b216aeb6440b24068dcad0df65, type: 2}
  - m_RefCount: 1
    m_Data: {fileID: 11400000, guid: 337003c5ced4eaf459682ace2eb8874a, type: 2}
  - m_RefCount: 1
    m_Data: {fileID: 11400000, guid: df8bd046229f04445aefc0ff1dd0a3db, type: 2}
  - m_RefCount: 1
    m_Data: {fileID: 11400000, guid: 5a3de7ac656f35c49be7213314427144, type: 2}
  - m_RefCount: 1
    m_Data: {fileID: 11400000, guid: f09de0229d513004eb2e42d15ed2139b, type: 2}
  - m_RefCount: 1
    m_Data: {fileID: 11400000, guid: 26584212d31871d4285d5b2b33395dd8, type: 2}
  - m_RefCount: 1
    m_Data: {fileID: 11400000, guid: 00e8ab8a96004b4448ab32b203cdf6d0, type: 2}
  - m_RefCount: 1
    m_Data: {fileID: 11400000, guid: c338ac74b967d5640b8740b4ea8b5090, type: 2}
  - m_RefCount: 1
    m_Data: {fileID: 11400000, guid: c3812bc42495e6a41989389d23c7c1b3, type: 2}
  - m_RefCount: 1
    m_Data: {fileID: 11400000, guid: fca0464f08316584dbedd82e6896792d, type: 2}
  - m_RefCount: 1
    m_Data: {fileID: 11400000, guid: 9b123eb0ee6da5a46a4e24c50d80485f, type: 2}
  - m_RefCount: 0
    m_Data: {fileID: 0}
  - m_RefCount: 0
    m_Data: {fileID: 0}
  - m_RefCount: 1
    m_Data: {fileID: 11400000, guid: 9abe26abba3aa0d42ada6dfcae7243f4, type: 2}
  - m_RefCount: 1
    m_Data: {fileID: 11400000, guid: 28adcd3160776294993daba26b540897, type: 2}
  - m_RefCount: 1
    m_Data: {fileID: 11400000, guid: 38ecdd2f73a6cd942801ac47b8e9bc2a, type: 2}
  - m_RefCount: 1
    m_Data: {fileID: 11400000, guid: 3a5afe7752399b04391637dc1bd452a6, type: 2}
  - m_RefCount: 1
    m_Data: {fileID: 11400000, guid: da34bfbf4829d7e41900afa405617d04, type: 2}
  - m_RefCount: 1
    m_Data: {fileID: 11400000, guid: 1f74bc2972c156a4bbcd11e25ccbdcb1, type: 2}
  - m_RefCount: 1
    m_Data: {fileID: 11400000, guid: 67afb7901ab512e459c5cb6af9bb4133, type: 2}
  - m_RefCount: 1
    m_Data: {fileID: 11400000, guid: c5a4a75e60c37be4592a706d8a0bb471, type: 2}
  - m_RefCount: 0
    m_Data: {fileID: 0}
  - m_RefCount: 0
    m_Data: {fileID: 0}
  - m_RefCount: 0
    m_Data: {fileID: 0}
  - m_RefCount: 0
    m_Data: {fileID: 0}
  - m_RefCount: 0
    m_Data: {fileID: 0}
  - m_RefCount: 0
    m_Data: {fileID: 0}
  - m_RefCount: 0
    m_Data: {fileID: 0}
  - m_RefCount: 0
    m_Data: {fileID: 0}
  - m_RefCount: 0
    m_Data: {fileID: 0}
  - m_RefCount: 0
    m_Data: {fileID: 0}
  - m_RefCount: 0
    m_Data: {fileID: 0}
  - m_RefCount: 0
    m_Data: {fileID: 0}
  - m_RefCount: 0
    m_Data: {fileID: 0}
  - m_RefCount: 0
    m_Data: {fileID: 0}
  - m_RefCount: 0
    m_Data: {fileID: 0}
  - m_RefCount: 0
    m_Data: {fileID: 0}
  - m_RefCount: 0
    m_Data: {fileID: 0}
  - m_RefCount: 0
    m_Data: {fileID: 0}
  - m_RefCount: 0
    m_Data: {fileID: 0}
  - m_RefCount: 0
    m_Data: {fileID: 0}
  - m_RefCount: 0
    m_Data: {fileID: 0}
  - m_RefCount: 0
    m_Data: {fileID: 0}
  - m_RefCount: 0
    m_Data: {fileID: 0}
  - m_RefCount: 0
    m_Data: {fileID: 0}
  - m_RefCount: 1
    m_Data: {fileID: 11400000, guid: c622a22a7540edb489625992e1ce0534, type: 2}
  - m_RefCount: 1
    m_Data: {fileID: 11400000, guid: 56dae5d11d0e7e944ba90096ca5ad376, type: 2}
  - m_RefCount: 1
    m_Data: {fileID: 11400000, guid: fcb229a3df942664abf62c20baed2622, type: 2}
  - m_RefCount: 1
    m_Data: {fileID: 11400000, guid: 32c495284ddfa1c4ca9882b85100e60e, type: 2}
  - m_RefCount: 1
    m_Data: {fileID: 11400000, guid: e4400b8b6645e4c41b2b2591f1291fd6, type: 2}
  - m_RefCount: 1
    m_Data: {fileID: 11400000, guid: cd998642269f6af4db39485d444cf7a9, type: 2}
  - m_RefCount: 1
    m_Data: {fileID: 11400000, guid: 24d2b309b88555b47ba983131fb1605d, type: 2}
  - m_RefCount: 1
    m_Data: {fileID: 11400000, guid: e251da89545f90442b611f780ad60c93, type: 2}
  m_TileSpriteArray:
  - m_RefCount: 1
    m_Data: {fileID: 1853305443424125263, guid: 0b83f2b51ba03ea4584ad0336a44d76a, type: 3}
  - m_RefCount: 1
    m_Data: {fileID: 4655486250586925486, guid: 0b83f2b51ba03ea4584ad0336a44d76a, type: 3}
  - m_RefCount: 1
    m_Data: {fileID: -5548090471061028330, guid: 0b83f2b51ba03ea4584ad0336a44d76a, type: 3}
  - m_RefCount: 1
    m_Data: {fileID: -5272752414128385770, guid: 0b83f2b51ba03ea4584ad0336a44d76a, type: 3}
  - m_RefCount: 1
    m_Data: {fileID: 7635849747751663956, guid: 0b83f2b51ba03ea4584ad0336a44d76a, type: 3}
  - m_RefCount: 1
    m_Data: {fileID: -2490580797626425845, guid: 0b83f2b51ba03ea4584ad0336a44d76a, type: 3}
  - m_RefCount: 1
    m_Data: {fileID: 8853502163344904142, guid: 0b83f2b51ba03ea4584ad0336a44d76a, type: 3}
  - m_RefCount: 1
    m_Data: {fileID: 3271689716518026890, guid: 0b83f2b51ba03ea4584ad0336a44d76a, type: 3}
  - m_RefCount: 1
    m_Data: {fileID: -8359254981755511162, guid: 0b83f2b51ba03ea4584ad0336a44d76a, type: 3}
  - m_RefCount: 1
    m_Data: {fileID: 3600480064120175298, guid: 0b83f2b51ba03ea4584ad0336a44d76a, type: 3}
  - m_RefCount: 1
    m_Data: {fileID: 2357785338785525315, guid: 0b83f2b51ba03ea4584ad0336a44d76a, type: 3}
  - m_RefCount: 1
    m_Data: {fileID: 3428027911377487719, guid: 0b83f2b51ba03ea4584ad0336a44d76a, type: 3}
  - m_RefCount: 1
    m_Data: {fileID: 8992850665148410548, guid: 0b83f2b51ba03ea4584ad0336a44d76a, type: 3}
  - m_RefCount: 1
    m_Data: {fileID: 1050954532309951821, guid: 0b83f2b51ba03ea4584ad0336a44d76a, type: 3}
  - m_RefCount: 1
    m_Data: {fileID: 7168818723063672170, guid: 0b83f2b51ba03ea4584ad0336a44d76a, type: 3}
  - m_RefCount: 1
    m_Data: {fileID: -6062974712792059723, guid: 0b83f2b51ba03ea4584ad0336a44d76a, type: 3}
  - m_RefCount: 1
    m_Data: {fileID: -187706490671468786, guid: 0b83f2b51ba03ea4584ad0336a44d76a, type: 3}
  - m_RefCount: 1
    m_Data: {fileID: 6064630377906179405, guid: 0b83f2b51ba03ea4584ad0336a44d76a, type: 3}
  - m_RefCount: 1
    m_Data: {fileID: 6279576533916568147, guid: 0b83f2b51ba03ea4584ad0336a44d76a, type: 3}
  - m_RefCount: 1
    m_Data: {fileID: -8287341170990077341, guid: 0b83f2b51ba03ea4584ad0336a44d76a, type: 3}
  - m_RefCount: 1
    m_Data: {fileID: -3189901618680762711, guid: 0b83f2b51ba03ea4584ad0336a44d76a, type: 3}
  - m_RefCount: 1
    m_Data: {fileID: -2440872159546570334, guid: 0b83f2b51ba03ea4584ad0336a44d76a, type: 3}
  - m_RefCount: 1
    m_Data: {fileID: 2269094053723693941, guid: 0b83f2b51ba03ea4584ad0336a44d76a, type: 3}
  - m_RefCount: 1
    m_Data: {fileID: -8214605354564438515, guid: 0b83f2b51ba03ea4584ad0336a44d76a, type: 3}
  - m_RefCount: 1
    m_Data: {fileID: 358599017461593184, guid: 0b83f2b51ba03ea4584ad0336a44d76a, type: 3}
  - m_RefCount: 1
    m_Data: {fileID: -4340315014877479156, guid: 0b83f2b51ba03ea4584ad0336a44d76a, type: 3}
  - m_RefCount: 1
    m_Data: {fileID: -4245749108542169403, guid: 0b83f2b51ba03ea4584ad0336a44d76a, type: 3}
  - m_RefCount: 1
    m_Data: {fileID: 1501836566506022, guid: 0b83f2b51ba03ea4584ad0336a44d76a, type: 3}
  - m_RefCount: 1
    m_Data: {fileID: 2053309422940668303, guid: 0b83f2b51ba03ea4584ad0336a44d76a, type: 3}
  - m_RefCount: 1
    m_Data: {fileID: -7635268655282105790, guid: 0b83f2b51ba03ea4584ad0336a44d76a, type: 3}
  - m_RefCount: 1
    m_Data: {fileID: 3752495884633629024, guid: 0b83f2b51ba03ea4584ad0336a44d76a, type: 3}
  - m_RefCount: 1
    m_Data: {fileID: 8372476680438841655, guid: 0b83f2b51ba03ea4584ad0336a44d76a, type: 3}
  - m_RefCount: 0
    m_Data: {fileID: 0}
  - m_RefCount: 0
    m_Data: {fileID: 0}
  - m_RefCount: 0
    m_Data: {fileID: 0}
  - m_RefCount: 0
    m_Data: {fileID: 0}
  - m_RefCount: 0
    m_Data: {fileID: 0}
  - m_RefCount: 0
    m_Data: {fileID: 0}
  - m_RefCount: 0
    m_Data: {fileID: 0}
  - m_RefCount: 0
    m_Data: {fileID: 0}
  - m_RefCount: 0
    m_Data: {fileID: 0}
  - m_RefCount: 0
    m_Data: {fileID: 0}
  - m_RefCount: 0
    m_Data: {fileID: 0}
  - m_RefCount: 0
    m_Data: {fileID: 0}
  - m_RefCount: 0
    m_Data: {fileID: 0}
  - m_RefCount: 0
    m_Data: {fileID: 0}
  - m_RefCount: 0
    m_Data: {fileID: 0}
  - m_RefCount: 0
    m_Data: {fileID: 0}
  - m_RefCount: 0
    m_Data: {fileID: 0}
  - m_RefCount: 0
    m_Data: {fileID: 0}
  - m_RefCount: 0
    m_Data: {fileID: 0}
  - m_RefCount: 0
    m_Data: {fileID: 0}
  - m_RefCount: 0
    m_Data: {fileID: 0}
  - m_RefCount: 0
    m_Data: {fileID: 0}
  - m_RefCount: 0
    m_Data: {fileID: 0}
  - m_RefCount: 0
    m_Data: {fileID: 0}
  - m_RefCount: 0
    m_Data: {fileID: 0}
  - m_RefCount: 0
    m_Data: {fileID: 0}
  m_TileMatrixArray:
  - m_RefCount: 32
    m_Data:
      e00: 1
      e01: 0
      e02: 0
      e03: 0
      e10: 0
      e11: 1
      e12: 0
      e13: 0
      e20: 0
      e21: 0
      e22: 1
      e23: 0
      e30: 0
      e31: 0
      e32: 0
      e33: 1
  m_TileColorArray:
  - m_RefCount: 32
    m_Data: {r: 1, g: 1, b: 1, a: 1}
  - m_RefCount: 0
    m_Data: {r: 2.4437013e-26, g: 2.4437013e-26, b: 2.4437013e-26, a: 2.4437013e-26}
  - m_RefCount: 0
    m_Data: {r: 2.4437013e-26, g: 2.4437013e-26, b: 2.4437013e-26, a: 2.4437013e-26}
  - m_RefCount: 0
    m_Data: {r: 2.4437013e-26, g: 2.4437013e-26, b: 2.4437013e-26, a: 2.4437013e-26}
  - m_RefCount: 0
    m_Data: {r: 2.4437013e-26, g: 2.4437013e-26, b: 2.4437013e-26, a: 2.4437013e-26}
  - m_RefCount: 0
    m_Data: {r: 2.4437013e-26, g: 2.4437013e-26, b: 2.4437013e-26, a: 2.4437013e-26}
  - m_RefCount: 0
    m_Data: {r: 2.4437013e-26, g: 2.4437013e-26, b: 2.4437013e-26, a: 2.4437013e-26}
  - m_RefCount: 0
    m_Data: {r: 2.4437013e-26, g: 2.4437013e-26, b: 2.4437013e-26, a: 2.4437013e-26}
  - m_RefCount: 0
    m_Data: {r: 2.4437013e-26, g: 2.4437013e-26, b: 2.4437013e-26, a: 2.4437013e-26}
  - m_RefCount: 0
    m_Data: {r: 2.4437013e-26, g: 2.4437013e-26, b: 2.4437013e-26, a: 2.4437013e-26}
  - m_RefCount: 0
    m_Data: {r: 2.4437013e-26, g: 2.4437013e-26, b: 2.4437013e-26, a: 2.4437013e-26}
  - m_RefCount: 0
    m_Data: {r: 2.4437013e-26, g: 2.4437013e-26, b: 2.4437013e-26, a: 2.4437013e-26}
  - m_RefCount: 0
    m_Data: {r: 2.4437013e-26, g: 2.4437013e-26, b: 2.4437013e-26, a: 2.4437013e-26}
  - m_RefCount: 0
    m_Data: {r: 2.4437013e-26, g: 2.4437013e-26, b: 2.4437013e-26, a: 2.4437013e-26}
  - m_RefCount: 0
    m_Data: {r: 2.4437013e-26, g: 2.4437013e-26, b: 2.4437013e-26, a: 2.4437013e-26}
  - m_RefCount: 0
    m_Data: {r: 2.4437013e-26, g: 2.4437013e-26, b: 2.4437013e-26, a: 2.4437013e-26}
  - m_RefCount: 0
    m_Data: {r: 2.4437013e-26, g: 2.4437013e-26, b: 2.4437013e-26, a: 2.4437013e-26}
  - m_RefCount: 0
    m_Data: {r: 2.4437013e-26, g: 2.4437013e-26, b: 2.4437013e-26, a: 2.4437013e-26}
  - m_RefCount: 0
    m_Data: {r: 2.4437013e-26, g: 2.4437013e-26, b: 2.4437013e-26, a: 2.4437013e-26}
  - m_RefCount: 0
    m_Data: {r: 2.4437013e-26, g: 2.4437013e-26, b: 2.4437013e-26, a: 2.4437013e-26}
  - m_RefCount: 0
    m_Data: {r: 2.4437013e-26, g: 2.4437013e-26, b: 2.4437013e-26, a: 2.4437013e-26}
  - m_RefCount: 0
    m_Data: {r: 2.4437013e-26, g: 2.4437013e-26, b: 2.4437013e-26, a: 2.4437013e-26}
  - m_RefCount: 0
    m_Data: {r: 2.4437013e-26, g: 2.4437013e-26, b: 2.4437013e-26, a: 2.4437013e-26}
  - m_RefCount: 0
    m_Data: {r: 2.4437013e-26, g: 2.4437013e-26, b: 2.4437013e-26, a: 2.4437013e-26}
  - m_RefCount: 0
    m_Data: {r: 2.4437013e-26, g: 2.4437013e-26, b: 2.4437013e-26, a: 2.4437013e-26}
  - m_RefCount: 0
    m_Data: {r: 2.4437013e-26, g: 2.4437013e-26, b: 2.4437013e-26, a: 2.4437013e-26}
  - m_RefCount: 0
    m_Data: {r: 2.4437013e-26, g: 2.4437013e-26, b: 2.4437013e-26, a: 2.4437013e-26}
  m_TileObjectToInstantiateArray: []
  m_AnimationFrameRate: 1
  m_Color: {r: 1, g: 1, b: 1, a: 1}
  m_Origin: {x: -2, y: -6, z: 0}
  m_Size: {x: 8, y: 9, z: 1}
  m_TileAnchor: {x: 0.5, y: 0.5, z: 0}
  m_TileOrientation: 0
  m_TileOrientationMatrix:
    e00: 1
    e01: 0
    e02: 0
    e03: 0
    e10: 0
    e11: 1
    e12: 0
    e13: 0
    e20: 0
    e21: 0
    e22: 1
    e23: 0
    e30: 0
    e31: 0
    e32: 0
    e33: 1
--- !u!483693784 &7859529739172425698
TilemapRenderer:
  m_ObjectHideFlags: 0
  m_CorrespondingSourceObject: {fileID: 0}
  m_PrefabInstance: {fileID: 0}
  m_PrefabAsset: {fileID: 0}
  m_GameObject: {fileID: 7709183437215448982}
  m_Enabled: 1
  m_CastShadows: 0
  m_ReceiveShadows: 0
  m_DynamicOccludee: 0
  m_MotionVectors: 1
  m_LightProbeUsage: 0
  m_ReflectionProbeUsage: 0
  m_RayTracingMode: 0
  m_RayTraceProcedural: 0
  m_RenderingLayerMask: 1
  m_RendererPriority: 0
  m_Materials:
  - {fileID: 10754, guid: 0000000000000000f000000000000000, type: 0}
  m_StaticBatchInfo:
    firstSubMesh: 0
    subMeshCount: 0
  m_StaticBatchRoot: {fileID: 0}
  m_ProbeAnchor: {fileID: 0}
  m_LightProbeVolumeOverride: {fileID: 0}
  m_ScaleInLightmap: 1
  m_ReceiveGI: 1
  m_PreserveUVs: 0
  m_IgnoreNormalsForChartDetection: 0
  m_ImportantGI: 0
  m_StitchLightmapSeams: 1
  m_SelectedEditorRenderState: 0
  m_MinimumChartSize: 4
  m_AutoUVMaxDistance: 0.5
  m_AutoUVMaxAngle: 89
  m_LightmapParameters: {fileID: 0}
  m_SortingLayerID: 0
  m_SortingLayer: 0
  m_SortingOrder: 0
  m_ChunkSize: {x: 32, y: 32, z: 32}
  m_ChunkCullingBounds: {x: 0, y: 0, z: 0}
  m_MaxChunkCount: 16
  m_MaxFrameAge: 16
  m_SortOrder: 0
  m_Mode: 0
  m_DetectChunkCullingBounds: 0
  m_MaskInteraction: 0
--- !u!114 &8971077205503884914
MonoBehaviour:
  m_ObjectHideFlags: 0
  m_CorrespondingSourceObject: {fileID: 0}
  m_PrefabInstance: {fileID: 0}
  m_PrefabAsset: {fileID: 0}
  m_GameObject: {fileID: 0}
  m_Enabled: 1
  m_EditorHideFlags: 0
  m_Script: {fileID: 12395, guid: 0000000000000000e000000000000000, type: 0}
  m_Name: Palette Settings
  m_EditorClassIdentifier: 
  cellSizing: 0
  m_TransparencySortMode: 0
  m_TransparencySortAxis: {x: 0, y: 0, z: 1}
